dvsdvsdvsdv	
1	0.035
2	0.083
3	0.059
4	0.075
5	0.084
6	0.082
7	0.084
8	0.068
9	0.083
10	0.086
11	0.085
12	0.086
13	0.085
14	0.071
15	0.070
16	0.071
17	0.083
18	0.057
19	0.229
20	0.055
21	0.124
22	0.054
23	0.221
24	0.052
25	0.072
26	0.054
27	0.082
28	0.084
29	0.085
30	0.084
31	0.085
32	0.076
33	0.085
34	0.073
35	0.086
36	0.067
37	0.071
38	0.086
39	0.078
40	0.085
41	0.074
42	0.072
43	0.056
44	0.085
45	0.071
46	0.083
47	0.082
48	0.086
49	0.084
50	0.370
51	0.083
52	0.086
53	0.085
54	0.072
55	0.084
56	0.083
57	0.083
58	0.071
59	0.083
60	0.083
61	0.083
62	0.083
63	0.084
64	0.073
65	0.071
66	0.084
67	0.083
68	0.082
69	0.057
70	0.083
71	0.085
72	0.070
73	0.084
74	0.070
75	0.053
76	0.066
77	0.070
78	0.054
79	0.074
80	0.071
81	0.058
82	0.058
83	0.055
84	0.070
85	0.065
86	0.071
87	0.067
88	0.084
89	0.085
90	0.085
91	0.085
92	0.086
93	0.055
94	0.055
95	0.059
96	0.064
97	0.140
98	0.068
99	0.070
100	0.068
101	0.051
102	0.059
103	0.136
104	0.070
105	0.056
106	0.054
107	0.073
108	0.082
109	0.057
110	0.053
111	0.070
112	0.054
113	0.055
114	0.095
115	0.061
116	0.123
117	0.062
118	0.060
119	0.059
120	0.071
121	0.057
122	0.054
123	0.056
124	0.077
125	0.061
126	0.105
127	0.110
128	0.070
129	0.091
130	0.085
131	0.070
132	0.075
133	0.087
134	0.060
135	0.055
136	0.071
137	0.083
138	0.062
139	0.055
140	0.054
141	0.062
142	0.058
143	0.055
144	0.055
145	0.060
146	0.058
147	0.061
148	0.071
149	0.063
150	0.091
151	0.056
152	0.056
153	0.086
154	0.084
155	0.071
156	0.062
157	0.060
158	0.063
159	0.071
160	0.059
161	0.060
162	0.064
163	0.055
164	0.070
165	0.055
166	0.059
167	0.057
168	0.056
169	0.060
170	0.064
171	0.099
172	0.053
173	0.065
174	0.053
175	0.057
176	0.059
177	0.053
178	0.058
179	0.053
180	0.057
181	0.069
182	0.068
183	0.059
184	0.063
185	0.055
186	0.060
187	0.070
188	0.056
189	0.076
190	0.145
191	0.079
192	0.056
193	0.086
194	0.090
195	0.134
196	0.056
197	0.085
198	0.130
199	0.063
200	0.064
201	0.056
202	0.068
203	0.071
204	0.150
205	0.056
206	0.064
207	0.065
208	0.056
209	0.073
210	0.058
211	0.071
212	0.071
213	0.083
214	0.059
215	0.060
216	0.054
217	0.076
218	0.074
219	0.074
220	0.086
221	0.085
222	0.060
223	0.056
224	0.095
225	0.085
226	0.070
227	0.081
228	0.085
229	0.085
230	0.083
231	0.076
232	0.101
233	0.094
234	0.061
235	0.059
236	0.058
237	0.085
238	0.085
239	0.056
240	0.069
241	0.070
242	0.071
243	0.085
244	0.058
245	0.086
246	0.072
247	0.085
248	0.062
249	0.114
250	0.046
251	0.146
252	0.047
253	0.050
254	0.118
255	01.
256	0.060
257	0.064
258	0.056
259	0.082
260	0.084
261	0.061
262	0.089
263	0.058
264	0.058
265	0.072
266	0.068
267	0.056
268	0.057
269	0.065
270	0.068
271	0.153
272	0.069
273	0.063
274	0.057
275	0.062
276	0.080
277	0.056
278	0.136
279	0.110
280	0.057
281	0.614
282	0.054
283	0.056
284	0.092
285	0.061
286	0.063
287	0.290
288	0.057
289	0.078
290	0.059
291	0.057
292	0.055
293	0.056
294	0.063
295	0.063
296	0.104
297	0.061
298	0.247
299	0.061
300	0.117
301	0.060
302	0.063
303	0.164
304	0.067
305	0.063
306	0.063
307	0.063
308	0.209
309	0.062
310	0.066
311	0.066
312	0.077
313	0.201
314	0.060
315	0.151
316	0.071
317	0.088
318	0.053
319	0.056
320	0.057
321	0.064
322	0.079
323	0.059
324	0.054
325	0.056
326	0.060
327	0.057
328	0.148
329	0.071
330	0.104
331	0.071
332	0.091
333	0.059
334	0.059
335	0.176
336	0.094
337	0.059
338	0.140
339	0.058
340	0.115
341	0.212
342	0.055
343	0.062
344	0.062
345	0.065
346	0.113
347	0.054
348	0.056
349	0.061
350	0.055
351	0.065
352	0.064
353	0.077
354	0.062
355	0.070
356	0.069
357	0.063
358	0.057
359	0.068
360	0.054
361	0.061
362	0.056
363	0.064
364	0.067
365	0.112
366	0.150
367	0.068
368	0.062
369	0.063
370	0.219
371	0.055
372	0.063
373	0.063
374	0.063
375	0.067
376	0.067
377	0.423
378	0.059
379	0.063
380	0.055
381	0.097
382	0.155
383	0.140
384	0.059
385	0.057
386	0.063
387	0.128
388	0.063
389	0.054
390	0.059
391	0.099
392	0.076
393	0.084
394	0.059
395	0.062
396	0.061
397	0.064
398	0.055
399	0.064
400	0.131
401	0.072
402	0.059
403	0.072
404	0.155
405	0.060
406	0.054
407	0.065
408	0.055
409	0.595
410	0.090
411	0.072
412	0.132
413	0.064
414	0.210
415	0.062
416	0.056
417	0.064
418	0.062
419	0.152
420	0.080
421	0.073
422	0.055
423	0.156
424	0.156
425	0.067
426	0.065
427	0.175
428	0.066
429	0.211
430	0.066
431	0.064
432	0.067
433	0.056
434	0.158
435	0.057
436	0.066
437	0.069
438	0.062
439	0.062
440	0.058
441	0.060
442	0.116
443	0.072
444	0.071
445	0.056
446	0.056
447	0.069
448	0.065
449	0.058
450	0.062
451	0.136
452	0.059
453	0.055
454	0.066
455	0.078
456	0.060
457	0.056
458	0.059
459	0.074
460	0.453
461	0.064
462	0.069
463	0.174
464	0.059
465	0.072
466	0.143
467	0.059
468	0.056
469	0.107
470	0.074
471	0.111
472	0.193
473	0.054
474	0.076
475	0.054
476	0.206
477	0.230
478	0.057
479	0.233
480	0.091
481	0.066
482	0.265
483	0.111
484	0.079
485	0.054
486	0.070
487	0.106
488	0.056
489	0.078
490	0.072
491	0.105
492	0.069
493	0.063
494	0.059
495	0.056
496	0.063
497	0.057
498	0.065
499	0.057
500	0.056
501	0.056
502	0.327
503	0.173
504	0.074
505	0.063
506	0.099
507	0.099
508	0.187
509	0.061
510	0.068
511	0.120
512	0.068
513	0.102
514	0.056
515	0.056
516	0.072
517	0.072
518	0.060
519	0.072
520	0.061
521	0.139
522	0.062
523	0.145
524	0.062
525	0.059
526	0.107
527	0.070
528	0.161
529	0.056
530	0.060
531	0.057
532	0.127
533	0.255
534	0.054
535	0.080
536	0.072
537	0.070
538	0.062
539	0.056
540	0.072
541	0.072
542	0.066
543	0.060
544	0.153
545	0.059
546	0.064
547	0.056
548	0.055
549	0.059
550	0.056
551	0.072
552	0.071
553	0.130
554	0.061
555	0.193
556	0.063
557	0.062
558	0.056
559	0.060
560	0.148
561	0.073
562	0.182
563	0.072
564	0.078
565	0.145
566	0.105
567	0.068
568	0.060
569	0.057
570	0.137
571	0.062
572	0.078
573	0.057
574	0.058
575	0.212
576	0.055
577	0.065
578	0.057
579	0.063
580	0.222
581	0.065
582	0.064
583	0.071
584	0.062
585	0.142
586	0.063
587	0.064
588	0.080
589	0.061
590	0.139
591	0.052
592	0.074
593	0.074
594	0.072
595	0.068
596	0.071
597	0.065
598	0.071
599	0.064
600	0.056
601	0.062
602	0.055
603	0.170
604	0.054
605	0.054
606	0.200
607	0.069
608	0.098
609	0.083
610	0.183
611	0.128
612	0.055
613	0.058
614	0.071
615	0.068
616	0.404
617	0.061
618	0.056
619	0.087
620	0.063
621	0.094
622	0.055
623	0.055
624	0.057
625	0.055
626	0.134
627	0.055
628	0.103
629	0.056
630	0.061
631	0.062
632	0.053
633	0.061
634	0.058
635	0.055
636	0.133
637	0.060
638	0.056
639	0.054
640	0.057
641	0.194
642	0.065
643	0.135
644	0.058
645	0.060
646	0.062
647	0.117
648	0.172
649	0.056
650	0.103
651	0.067
652	0.062
653	0.055
654	0.053
655	0.057
656	0.055
657	0.300
658	0.063
659	0.070
660	0.283
661	0.186
662	0.059
663	0.060
664	0.059
665	0.109
666	0.071
667	0.055
668	0.134
669	0.071
670	0.133
671	0.071
672	0.055
673	0.071
674	0.084
675	0.061
676	0.056
677	0.061
678	0.055
679	0.056
680	0.074
681	0.054
682	0.055
683	0.058
684	0.071
685	0.056
686	0.071
687	0.055
688	0.060
689	0.071
690	0.063
691	0.062
692	0.355
693	0.055
694	0.082
695	0.072
696	0.062
697	0.055
698	0.069
699	0.072
700	0.070
701	0.058
702	0.055
703	0.055
704	0.077
705	0.059
706	0.065
707	0.063
708	0.056
709	0.054
710	0.056
711	0.077
712	0.075
713	0.071
714	0.083
715	0.086
716	0.059
717	0.071
718	0.094
719	0.107
720	0.056
721	0.075
722	0.069
723	0.058
724	0.071
725	0.058
726	0.117
727	0.059
728	0.086
729	0.084
730	0.061
731	0.072
732	0.060
733	0.073
734	0.086
735	0.086
736	0.079
737	0.084
738	0.095
739	0.085
740	0.094
741	0.081
742	0.248
743	0.054
744	0.074
745	0.056
746	0.061
747	0.060
748	0.607
749	0.068
750	0.063
751	0.066
752	0.066
753	0.066
754	0.062
755	0.064
756	0.061
757	0.064
758	0.217
759	0.108
760	0.101
761	0.056
762	0.055
763	0.063
764	0.061
765	0.072
766	0.070
767	0.086
768	0.086
769	0.083
770	0.087
771	0.095
772	0.073
773	0.070
774	0.073
775	0.087
776	0.071
777	0.056
778	0.073
779	0.085
780	0.060
781	0.055
782	0.093
783	0.068
784	0.112
785	0.058
786	0.056
787	0.061
788	0.054
789	0.131
790	0.055
791	0.101
792	0.055
793	0.054
794	0.056
795	0.212
796	0.069
797	0.062
798	0.065
799	0.066
800	0.082
801	0.061
802	0.066
803	0.062
804	0.054
805	0.060
806	0.060
807	0.066
808	0.061
809	0.212
810	0.064
811	0.063
812	0.059
813	0.069
814	0.063
815	0.056
816	0.056
817	0.060
818	0.059
819	0.056
820	0.060
821	0.064
822	0.071
823	0.058
824	0.063
825	0.058
826	0.105
827	0.061
828	0.688
829	0.068
830	0.058
831	0.066
832	0.059
833	0.063
834	0.057
835	0.064
836	0.056
837	0.068
838	0.085
839	0.062
840	0.213
841	0.140
842	0.062
843	0.057
844	0.100
845	0.132
846	0.061
847	0.058
848	0.056
849	0.058
850	0.058
851	0.114
852	0.062
853	0.059
854	0.057
855	0.061
856	0.162
857	0.063
858	0.071
859	0.054
860	0.055
861	0.059
862	0.056
863	0.070
864	0.055
865	0.062
866	0.091
867	0.054
868	0.066
869	0.055
870	0.104
871	0.063
872	0.056
873	0.060
874	0.056
875	.89
876	0.056
877	0.056
878	0.056
879	0.055
880	0.055
881	0.063
882	0.055
883	0.056
884	0.055
885	0.746
886	0.057
887	0.066
888	0.065
889	0.059
890	0.104
891	0.063
892	0.065
893	0.066
894	0.064
895	0.065
896	0.161
897	0.062
898	0.059
899	0.058
900	0.059
901	0.055
902	0.064
903	0.062
904	0.055
905	0.068
906	0.070
907	0.062
908	0.066
909	0.055
910	0.055
911	0.071
912	0.060
913	0.056
914	0.066
915	0.065
916	0.067
917	0.071
918	0.127
919	0.130
920	0.069
921	0.077
922	0.062
923	0.059
924	0.057
925	0.061
926	0.059
927	0.065
928	0.064
929	0.066
930	0.090
931	0.071
932	0.081
933	0.064
934	0.059
935	0.070
936	0.065
937	0.061
938	0.061
939	0.063
940	0.057
941	0.059
942	0.055
943	0.055
944	0.066
945	0.099
946	0.138
947	0.076
948	0.074
949	0.057
950	0.080
951	0.282
952	0.118
953	0.059
954	0.066
955	0.055
956	0.070
957	0.054
958	0.059
959	0.069
960	0.064
961	0.062
962	0.058
963	0.061
964	0.064
965	0.057
966	0.115
967	0.062
968	0.118
969	0.067
970	0.063
971	0.064
972	0.083
973	0.071
974	0.056
975	0.055
976	0.116
977	0.063
978	0.114
979	0.056
980	0.066
981	0.059
982	0.067
983	0.055
984	0.063
985	0.060
986	0.064
987	0.135
988	0.069
989	0.064
990	0.063
991	0.060
992	0.063
993	0.139
994	0.062
995	0.069
996	0.060
997	0.063
998	0.137
999	0.070
1000	0.064
	
	
0%	1022745ms
